<?xml version="1.0" encoding="utf-8"?>
<!-- Generator: Adobe Illustrator 18.0.0, SVG Export Plug-In . SVG Version: 6.00 Build 0)  -->
<!DOCTYPE svg PUBLIC "-//W3C//DTD SVG 1.1//EN" "http://www.w3.org/Graphics/SVG/1.1/DTD/svg11.dtd">
<svg version="1.1" xmlns="http://www.w3.org/2000/svg" xmlns:xlink="http://www.w3.org/1999/xlink" x="0px" y="0px"
	 viewBox="0 0 32 32" enable-background="new 0 0 32 32" xml:space="preserve">
<g id="layer_1">
</g>
<g id="Layer_2">
</g>
<g id="Layer_3">
</g>
<g id="Layer_4">
</g>
<g id="Layer_5">
</g>
<g id="Layer_6">
</g>
<g id="Layer_7">
	<g>
		<path d="M24,20.8c0-0.1,0-0.3-0.1-0.4c0,0,0-0.1-0.1-0.1c-0.1-0.1-0.1-0.2-0.2-0.2c0,0,0,0,0,0l-2.7-2.2c-0.4-0.3-1.1-0.3-1.4,0.2
			c-0.3,0.4-0.3,1.1,0.2,1.4l0.5,0.4h-0.9c-0.2,0-0.5-0.1-0.6-0.4l-3.5-7.8c-0.4-0.9-1.4-1.6-2.4-1.6H9c-0.6,0-1,0.4-1,1s0.4,1,1,1
			h3.8c0.2,0,0.5,0.1,0.6,0.4l3.5,7.8c0.4,0.9,1.4,1.6,2.4,1.6h0.9l-0.5,0.4c-0.4,0.3-0.5,1-0.2,1.4c0.2,0.2,0.5,0.4,0.8,0.4
			c0.2,0,0.4-0.1,0.6-0.2l2.7-2.2c0,0,0,0,0,0c0.1-0.1,0.1-0.1,0.2-0.2c0,0,0.1-0.1,0.1-0.1C24,21.1,24,21,24,20.8z"/>
		<path d="M15.2,17.8c-0.5-0.2-1.1,0-1.3,0.5l-0.5,1.2c-0.1,0.2-0.3,0.4-0.6,0.4H9c-0.6,0-1,0.4-1,1s0.4,1,1,1h3.8
			c1,0,2-0.6,2.4-1.6l0.5-1.2C15.9,18.6,15.7,18,15.2,17.8z"/>
		<path d="M23.8,10.6c-0.1-0.1-0.1-0.2-0.2-0.2c0,0,0,0,0,0l-2.7-2.2c-0.4-0.3-1.1-0.3-1.4,0.2c-0.3,0.4-0.3,1.1,0.2,1.4l0.5,0.4
			h-0.9c-1,0-2,0.6-2.4,1.6l-0.5,1.2c-0.2,0.5,0,1.1,0.5,1.3c0.1,0.1,0.3,0.1,0.4,0.1c0.4,0,0.7-0.2,0.9-0.6l0.5-1.2
			c0.1-0.2,0.3-0.4,0.6-0.4h0.9l-0.5,0.4c-0.4,0.3-0.5,1-0.2,1.4c0.2,0.2,0.5,0.4,0.8,0.4c0.2,0,0.4-0.1,0.6-0.2l2.7-2.2
			c0,0,0,0,0,0c0.1-0.1,0.1-0.1,0.2-0.2c0,0,0.1-0.1,0.1-0.1c0.1-0.1,0.1-0.3,0.1-0.4S24,10.9,23.8,10.6
			C23.9,10.7,23.9,10.7,23.8,10.6z"/>
		<path d="M16,2C8.3,2,2,8.3,2,16s6.3,14,14,14s14-6.3,14-14S23.7,2,16,2z M16,28C9.4,28,4,22.6,4,16S9.4,4,16,4s12,5.4,12,12
			S22.6,28,16,28z"/>
	</g>
</g>
<g id="Layer_8">
</g>
<g id="Layer_9">
</g>
<g id="Layer_10">
</g>
<g id="Layer_11">
</g>
<g id="Layer_12">
</g>
<g id="Layer_13">
</g>
<g id="Layer_14">
</g>
<g id="Layer_15">
</g>
<g id="Layer_16">
</g>
<g id="Layer_17">
</g>
<g id="Layer_18">
</g>
<g id="Layer_19">
</g>
<g id="Layer_20">
</g>
<g id="Layer_21">
</g>
<g id="Layer_22">
</g>
<g id="Layer_23">
</g>
<g id="Layer_24">
</g>
<g id="Layer_25">
</g>
<g id="Layer_26">
</g>
<g id="Layer_27">
</g>
<g id="Layer_28">
</g>
<g id="Layer_29">
</g>
<g id="Layer_30">
</g>
</svg>
